Working with DataCombined class
…
Extracting a combined data frame

The data frame (also sometimes called as a table) data structure is
central to R-based workflows, and, thus, we may wish to extract a data
frame for datasets present in the object.

Internally, DataCombined extracts data frames for
observed and simulated datasets and combines them.

myDataCombined$toDataFrame()
#> # A tibble: 504 × 27
#>    name        group dataT…¹ xValues xUnit xDime…² yValues yUnit yDime…³ yErro…⁴
#>    <chr>       <chr> <chr>     <dbl> <chr> <chr>     <dbl> <chr> <chr>     <dbl>
#>  1 Aciclovir … Acic… simula…       0 min   Time       0    µmol… Concen…      NA
#>  2 Aciclovir … Acic… simula…       1 min   Time       3.25 µmol… Concen…      NA
#>  3 Aciclovir … Acic… simula…       2 min   Time       9.10 µmol… Concen…      NA
#>  4 Aciclovir … Acic… simula…       3 min   Time      15.0  µmol… Concen…      NA
#>  5 Aciclovir … Acic… simula…       4 min   Time      20.7  µmol… Concen…      NA
#>  6 Aciclovir … Acic… simula…       5 min   Time      26.2  µmol… Concen…      NA
#>  7 Aciclovir … Acic… simula…       6 min   Time      31.4  µmol… Concen…      NA
#>  8 Aciclovir … Acic… simula…       7 min   Time      36.4  µmol… Concen…      NA
#>  9 Aciclovir … Acic… simula…       8 min   Time      41.1  µmol… Concen…      NA
#> 10 Aciclovir … Acic… simula…       9 min   Time      45.5  µmol… Concen…      NA
#> # … with 494 more rows, 17 more variables: yErrorType <chr>, yErrorUnit <chr>,
#> #   IndividualId <int>, molWeight <dbl>, lloq <dbl>, Source <chr>, File <chr>,
#> #   Sheet <chr>, Molecule <chr>, Species <chr>, Organ <chr>, Compartment <chr>,
#> #   `Study Id` <chr>, Gender <chr>, Dose <chr>, Route <chr>,
#> #   `Patient Id` <chr>, and abbreviated variable names ¹​dataType, ²​xDimension,
#> #   ³​yDimension, ⁴​yErrorValues

This function returns a tibble
data frame. If you wish to modify how it is printed, you can have a
look at the available options here.
In fact, let’s change a few options and print the data frame again.

options(
  pillar.width = Inf, # show all columns
  pillar.min_chars = Inf # to turn off truncation of column titles
)

myDataCombined$toDataFrame()

#> # A tibble: 504 × 27
#>    name             group         dataType  xValues xUnit xDimension yValues
#>    <chr>            <chr>         <chr>       <dbl> <chr> <chr>        <dbl>
#>  1 Aciclovir Plasma Aciclovir PVB simulated       0 min   Time          0   
#>  2 Aciclovir Plasma Aciclovir PVB simulated       1 min   Time          3.25
#>  3 Aciclovir Plasma Aciclovir PVB simulated       2 min   Time          9.10
#>  4 Aciclovir Plasma Aciclovir PVB simulated       3 min   Time         15.0 
#>  5 Aciclovir Plasma Aciclovir PVB simulated       4 min   Time         20.7 
#>  6 Aciclovir Plasma Aciclovir PVB simulated       5 min   Time         26.2 
#>  7 Aciclovir Plasma Aciclovir PVB simulated       6 min   Time         31.4 
#>  8 Aciclovir Plasma Aciclovir PVB simulated       7 min   Time         36.4 
#>  9 Aciclovir Plasma Aciclovir PVB simulated       8 min   Time         41.1 
#> 10 Aciclovir Plasma Aciclovir PVB simulated       9 min   Time         45.5 
#>    yUnit  yDimension            yErrorValues yErrorType yErrorUnit IndividualId
#>    <chr>  <chr>                        <dbl> <chr>      <chr>             <int>
#>  1 µmol/l Concentration (molar)           NA <NA>       <NA>                  0
#>  2 µmol/l Concentration (molar)           NA <NA>       <NA>                  0
#>  3 µmol/l Concentration (molar)           NA <NA>       <NA>                  0
#>  4 µmol/l Concentration (molar)           NA <NA>       <NA>                  0
#>  5 µmol/l Concentration (molar)           NA <NA>       <NA>                  0
#>  6 µmol/l Concentration (molar)           NA <NA>       <NA>                  0
#>  7 µmol/l Concentration (molar)           NA <NA>       <NA>                  0
#>  8 µmol/l Concentration (molar)           NA <NA>       <NA>                  0
#>  9 µmol/l Concentration (molar)           NA <NA>       <NA>                  0
#> 10 µmol/l Concentration (molar)           NA <NA>       <NA>                  0
#>    molWeight  lloq Source File  Sheet Molecule Species Organ Compartment
#>        <dbl> <dbl> <chr>  <chr> <chr> <chr>    <chr>   <chr> <chr>      
#>  1      225.    NA <NA>   <NA>  <NA>  <NA>     <NA>    <NA>  <NA>       
#>  2      225.    NA <NA>   <NA>  <NA>  <NA>     <NA>    <NA>  <NA>       
#>  3      225.    NA <NA>   <NA>  <NA>  <NA>     <NA>    <NA>  <NA>       
#>  4      225.    NA <NA>   <NA>  <NA>  <NA>     <NA>    <NA>  <NA>       
#>  5      225.    NA <NA>   <NA>  <NA>  <NA>     <NA>    <NA>  <NA>       
#>  6      225.    NA <NA>   <NA>  <NA>  <NA>     <NA>    <NA>  <NA>       
#>  7      225.    NA <NA>   <NA>  <NA>  <NA>     <NA>    <NA>  <NA>       
#>  8      225.    NA <NA>   <NA>  <NA>  <NA>     <NA>    <NA>  <NA>       
#>  9      225.    NA <NA>   <NA>  <NA>  <NA>     <NA>    <NA>  <NA>       
#> 10      225.    NA <NA>   <NA>  <NA>  <NA>     <NA>    <NA>  <NA>       
#>    `Study Id` Gender Dose  Route `Patient Id`
#>    <chr>      <chr>  <chr> <chr> <chr>       
#>  1 <NA>       <NA>   <NA>  <NA>  <NA>        
#>  2 <NA>       <NA>   <NA>  <NA>  <NA>        
#>  3 <NA>       <NA>   <NA>  <NA>  <NA>        
#>  4 <NA>       <NA>   <NA>  <NA>  <NA>        
#>  5 <NA>       <NA>   <NA>  <NA>  <NA>        
#>  6 <NA>       <NA>   <NA>  <NA>  <NA>        
#>  7 <NA>       <NA>   <NA>  <NA>  <NA>        
#>  8 <NA>       <NA>   <NA>  <NA>  <NA>        
#>  9 <NA>       <NA>   <NA>  <NA>  <NA>        
#> 10 <NA>       <NA>   <NA>  <NA>  <NA>        
#> # … with 494 more rows
…
{ospsuite} also provides a few helper functions to
modify the data frame further.

When multiple (observed and/or simulated) datasets are present in a
data frame, they are likely to have different units.
convertUnits() function helps to convert them to a common
unit1.

convertUnits(
  myDataCombined,
  xUnit = ospUnits$Time$s,
  yUnit = ospUnits$`Concentration [mass]`$`µg/l`
)
#> # A tibble: 504 × 27
#>    name        group dataT…¹ xValues xUnit xDime…² yValues yUnit yDime…³ yErro…⁴
#>    <chr>       <chr> <chr>     <dbl> <chr> <chr>     <dbl> <chr> <chr>     <dbl>
#>  1 Aciclovir … Acic… simula…       0 s     Time         0  µg/l  Concen…      NA
#>  2 Aciclovir … Acic… simula…      60 s     Time       733. µg/l  Concen…      NA
#>  3 Aciclovir … Acic… simula…     120 s     Time      2050. µg/l  Concen…      NA
#>  4 Aciclovir … Acic… simula…     180 s     Time      3382. µg/l  Concen…      NA
#>  5 Aciclovir … Acic… simula…     240 s     Time      4668. µg/l  Concen…      NA
#>  6 Aciclovir … Acic… simula…     300 s     Time      5901. µg/l  Concen…      NA
#>  7 Aciclovir … Acic… simula…     360 s     Time      7077. µg/l  Concen…      NA
#>  8 Aciclovir … Acic… simula…     420 s     Time      8194. µg/l  Concen…      NA
#>  9 Aciclovir … Acic… simula…     480 s     Time      9249. µg/l  Concen…      NA
#> 10 Aciclovir … Acic… simula…     540 s     Time     10242. µg/l  Concen…      NA
#> # … with 494 more rows, 17 more variables: yErrorType <chr>, yErrorUnit <chr>,
#> #   IndividualId <int>, molWeight <dbl>, lloq <dbl>, Source <chr>, File <chr>,
#> #   Sheet <chr>, Molecule <chr>, Species <chr>, Organ <chr>, Compartment <chr>,
#> #   `Study Id` <chr>, Gender <chr>, Dose <chr>, Route <chr>,
#> #   `Patient Id` <chr>, and abbreviated variable names ¹​dataType, ²​xDimension,
#> #   ³​yDimension, ⁴​yErrorValues
…
