…
# simulationResultsToTibble works as expected - Aciclovir

    Code
      df1
    Output
      # A tibble: 491 x 9
         IndividualId  Time paths    simulationValues TimeDimension TimeUnit dimension
                <int> <dbl> <chr>               <dbl> <chr>         <chr>    <chr>    
       1            0     0 Organis~             0    Time          min      Concentr~
       2            0     1 Organis~             3.25 Time          min      Concentr~
       3            0     2 Organis~             9.10 Time          min      Concentr~
       4            0     3 Organis~            15.0  Time          min      Concentr~
       5            0     4 Organis~            20.7  Time          min      Concentr~
       6            0     5 Organis~            26.2  Time          min      Concentr~
       7            0     6 Organis~            31.4  Time          min      Concentr~
       8            0     7 Organis~            36.4  Time          min      Concentr~
       9            0     8 Organis~            41.1  Time          min      Concentr~
      10            0     9 Organis~            45.5  Time          min      Concentr~
      # i 481 more rows
      # i 2 more variables: unit <chr>, molWeight <dbl>
