…
## Extracting a combined data frame

The data frame (also sometimes called as a table) data structure is
central to R-based workflows, and, thus, we may wish to extract a data
frame for datasets present in the object.

Internally, `DataCombined` extracts data frames for observed and
simulated datasets and combines them.

``` r
myDataCombined$toDataFrame()
#> # A tibble: 504 × 27
#>    IndividualId xValues name           yValues xDimension xUnit yDimension yUnit
#>           <int>   <dbl> <chr>            <dbl> <chr>      <chr> <chr>      <chr>
#>  1            0       0 Aciclovir Pla…    0    Time       min   Concentra… µmol…
#>  2            0       1 Aciclovir Pla…    3.25 Time       min   Concentra… µmol…
#>  3            0       2 Aciclovir Pla…    9.10 Time       min   Concentra… µmol…
#>  4            0       3 Aciclovir Pla…   15.0  Time       min   Concentra… µmol…
#>  5            0       4 Aciclovir Pla…   20.7  Time       min   Concentra… µmol…
#>  6            0       5 Aciclovir Pla…   26.2  Time       min   Concentra… µmol…
#>  7            0       6 Aciclovir Pla…   31.4  Time       min   Concentra… µmol…
#>  8            0       7 Aciclovir Pla…   36.4  Time       min   Concentra… µmol…
#>  9            0       8 Aciclovir Pla…   41.1  Time       min   Concentra… µmol…
#> 10            0       9 Aciclovir Pla…   45.5  Time       min   Concentra… µmol…
#> # ℹ 494 more rows
#> # ℹ 19 more variables: molWeight <dbl>, dataType <chr>, yErrorValues <dbl>,
#> #   yErrorType <chr>, yErrorUnit <chr>, lloq <dbl>, Source <chr>, File <chr>,
#> #   Sheet <chr>, Molecule <chr>, Species <chr>, Organ <chr>, Compartment <chr>,
#> #   `Study Id` <chr>, Gender <chr>, Dose <chr>, Route <chr>,
#> #   `Patient Id` <chr>, group <chr>
```
…
``` r
options(
  pillar.width = Inf, # show all columns
  pillar.min_chars = Inf # to turn off truncation of column titles
)

myDataCombined$toDataFrame()
```

    #> # A tibble: 504 × 27
    #>    IndividualId xValues name             yValues xDimension xUnit
    #>           <int>   <dbl> <chr>              <dbl> <chr>      <chr>
    #>  1            0       0 Aciclovir Plasma    0    Time       min  
    #>  2            0       1 Aciclovir Plasma    3.25 Time       min  
    #>  3            0       2 Aciclovir Plasma    9.10 Time       min  
    #>  4            0       3 Aciclovir Plasma   15.0  Time       min  
    #>  5            0       4 Aciclovir Plasma   20.7  Time       min  
    #>  6            0       5 Aciclovir Plasma   26.2  Time       min  
    #>  7            0       6 Aciclovir Plasma   31.4  Time       min  
    #>  8            0       7 Aciclovir Plasma   36.4  Time       min  
    #>  9            0       8 Aciclovir Plasma   41.1  Time       min  
    #> 10            0       9 Aciclovir Plasma   45.5  Time       min  
    #>    yDimension            yUnit  molWeight dataType  yErrorValues yErrorType
    #>    <chr>                 <chr>      <dbl> <chr>            <dbl> <chr>     
    #>  1 Concentration (molar) µmol/l      225. simulated           NA NA        
    #>  2 Concentration (molar) µmol/l      225. simulated           NA NA        
    #>  3 Concentration (molar) µmol/l      225. simulated           NA NA        
    #>  4 Concentration (molar) µmol/l      225. simulated           NA NA        
    #>  5 Concentration (molar) µmol/l      225. simulated           NA NA        
    #>  6 Concentration (molar) µmol/l      225. simulated           NA NA        
    #>  7 Concentration (molar) µmol/l      225. simulated           NA NA        
    #>  8 Concentration (molar) µmol/l      225. simulated           NA NA        
    #>  9 Concentration (molar) µmol/l      225. simulated           NA NA        
    #> 10 Concentration (molar) µmol/l      225. simulated           NA NA        
    #>    yErrorUnit  lloq Source File  Sheet Molecule Species Organ Compartment
    #>    <chr>      <dbl> <chr>  <chr> <chr> <chr>    <chr>   <chr> <chr>      
    #>  1 NA            NA NA     NA    NA    NA       NA      NA    NA         
    #>  2 NA            NA NA     NA    NA    NA       NA      NA    NA         
    #>  3 NA            NA NA     NA    NA    NA       NA      NA    NA         
    #>  4 NA            NA NA     NA    NA    NA       NA      NA    NA         
    #>  5 NA            NA NA     NA    NA    NA       NA      NA    NA         
    #>  6 NA            NA NA     NA    NA    NA       NA      NA    NA         
    #>  7 NA            NA NA     NA    NA    NA       NA      NA    NA         
    #>  8 NA            NA NA     NA    NA    NA       NA      NA    NA         
    #>  9 NA            NA NA     NA    NA    NA       NA      NA    NA         
    #> 10 NA            NA NA     NA    NA    NA       NA      NA    NA         
    #>    `Study Id` Gender Dose  Route `Patient Id` group        
    #>    <chr>      <chr>  <chr> <chr> <chr>        <chr>        
    #>  1 NA         NA     NA    NA    NA           Aciclovir PVB
    #>  2 NA         NA     NA    NA    NA           Aciclovir PVB
    #>  3 NA         NA     NA    NA    NA           Aciclovir PVB
    #>  4 NA         NA     NA    NA    NA           Aciclovir PVB
    #>  5 NA         NA     NA    NA    NA           Aciclovir PVB
    #>  6 NA         NA     NA    NA    NA           Aciclovir PVB
    #>  7 NA         NA     NA    NA    NA           Aciclovir PVB
    #>  8 NA         NA     NA    NA    NA           Aciclovir PVB
    #>  9 NA         NA     NA    NA    NA           Aciclovir PVB
    #> 10 NA         NA     NA    NA    NA           Aciclovir PVB
    #> # ℹ 494 more rows
…
When multiple (observed and/or simulated) datasets are present in a data
frame, they are likely to have different units.
[`convertUnits()`](https://www.open-systems-pharmacology.org/OSPSuite-R/dev/reference/convertUnits.md)
function helps to convert them to a common unit. The function will not
modify the `DataCombined` object but return a new data frame with
unified units.[¹](#fn1).

``` r
convertUnits(
  myDataCombined,
  xUnit = ospUnits$Time$s,
  yUnit = ospUnits$`Concentration [mass]`$`µg/l`
)
#> # A tibble: 504 × 27
#>    IndividualId xValues name           yValues xDimension xUnit yDimension yUnit
#>           <int>   <dbl> <chr>            <dbl> <chr>      <chr> <chr>      <chr>
#>  1            0       0 Aciclovir Pla…      0  Time       s     Concentra… µg/l 
#>  2            0      60 Aciclovir Pla…    733. Time       s     Concentra… µg/l 
#>  3            0     120 Aciclovir Pla…   2050. Time       s     Concentra… µg/l 
#>  4            0     180 Aciclovir Pla…   3382. Time       s     Concentra… µg/l 
#>  5            0     240 Aciclovir Pla…   4668. Time       s     Concentra… µg/l 
#>  6            0     300 Aciclovir Pla…   5901. Time       s     Concentra… µg/l 
#>  7            0     360 Aciclovir Pla…   7077. Time       s     Concentra… µg/l 
#>  8            0     420 Aciclovir Pla…   8194. Time       s     Concentra… µg/l 
#>  9            0     480 Aciclovir Pla…   9249. Time       s     Concentra… µg/l 
#> 10            0     540 Aciclovir Pla…  10242. Time       s     Concentra… µg/l 
#> # ℹ 494 more rows
#> # ℹ 19 more variables: molWeight <dbl>, dataType <chr>, yErrorValues <dbl>,
#> #   yErrorType <chr>, yErrorUnit <chr>, lloq <dbl>, Source <chr>, File <chr>,
#> #   Sheet <chr>, Molecule <chr>, Species <chr>, Organ <chr>, Compartment <chr>,
#> #   `Study Id` <chr>, Gender <chr>, Dose <chr>, Route <chr>,
#> #   `Patient Id` <chr>, group <chr>
```
…
