…
# Looking at the applied transformations
myDataCombined$dataTransformations
#> # A tibble: 2 × 5
#>   name                             xOffsets yOffsets xScaleFactors yScaleFactors
#>   <chr>                               <dbl>    <dbl>         <dbl>         <dbl>
#> 1 Organism|PeripheralVenousBlood|…        0        0             1             1
#> 2 Vergin 1995.Iv                          0        0             1             1

# Accessing the combined data frame
myDataCombined$toDataFrame()
#> # A tibble: 504 × 27
#>    IndividualId xValues name           yValues xDimension xUnit yDimension yUnit
#>           <int>   <dbl> <chr>            <dbl> <chr>      <chr> <chr>      <chr>
#>  1            0       0 Organism|Peri…    0    Time       min   Concentra… µmol…
#>  2            0       1 Organism|Peri…    3.25 Time       min   Concentra… µmol…
#>  3            0       2 Organism|Peri…    9.10 Time       min   Concentra… µmol…
#>  4            0       3 Organism|Peri…   15.0  Time       min   Concentra… µmol…
#>  5            0       4 Organism|Peri…   20.7  Time       min   Concentra… µmol…
#>  6            0       5 Organism|Peri…   26.2  Time       min   Concentra… µmol…
#>  7            0       6 Organism|Peri…   31.4  Time       min   Concentra… µmol…
#>  8            0       7 Organism|Peri…   36.4  Time       min   Concentra… µmol…
#>  9            0       8 Organism|Peri…   41.1  Time       min   Concentra… µmol…
#> 10            0       9 Organism|Peri…   45.5  Time       min   Concentra… µmol…
#> # ℹ 494 more rows
#> # ℹ 19 more variables: molWeight <dbl>, dataType <chr>, yErrorValues <dbl>,
#> #   yErrorType <chr>, yErrorUnit <chr>, lloq <dbl>, Source <chr>, File <chr>,
#> #   Sheet <chr>, Molecule <chr>, Species <chr>, Organ <chr>, Compartment <chr>,
#> #   `Study Id` <chr>, Gender <chr>, Dose <chr>, Route <chr>,
#> #   `Patient Id` <chr>, group <chr>
```
