…
# raw data
df
#> # A tibble: 48 × 4
#>    xValues yValues group                    name                    
#>      <dbl>   <dbl> <chr>                    <chr>                   
#>  1       0   0     Stevens 2012 solid total Stevens 2012 solid total
#>  2       1   0.991 Stevens 2012 solid total Stevens 2012 solid total
#>  3       2   0.982 Stevens 2012 solid total Stevens 2012 solid total
#>  4       3   0.972 Stevens 2012 solid total Stevens 2012 solid total
#>  5       4   0.963 Stevens 2012 solid total Stevens 2012 solid total
#>  6       5   0.953 Stevens 2012 solid total Stevens 2012 solid total
#>  7       0   0     Stevens 2012 solid total Stevens 2012 solid total
#>  8       1   0.991 Stevens 2012 solid total Stevens 2012 solid total
#>  9       2   0.982 Stevens 2012 solid total Stevens 2012 solid total
#> 10       3   0.972 Stevens 2012 solid total Stevens 2012 solid total
#> # ℹ 38 more rows
…
