…
# Add observed data set
myDataCombined$addDataSets(obsData$`Vergin 1995.Iv`, groups = "Aciclovir PVB")

convertUnits(
  myDataCombined,
  xUnit = ospUnits$Time$s,
  yUnit = ospUnits$`Concentration [mass]`$`µg/l`
)
#> # A tibble: 504 × 27
#>    IndividualId xValues name           yValues xDimension xUnit yDimension yUnit
#>           <int>   <dbl> <chr>            <dbl> <chr>      <chr> <chr>      <chr>
#>  1            0       0 Organism|Peri…      0  Time       s     Concentra… µg/l 
#>  2            0      60 Organism|Peri…    733. Time       s     Concentra… µg/l 
#>  3            0     120 Organism|Peri…   2050. Time       s     Concentra… µg/l 
#>  4            0     180 Organism|Peri…   3382. Time       s     Concentra… µg/l 
#>  5            0     240 Organism|Peri…   4668. Time       s     Concentra… µg/l 
#>  6            0     300 Organism|Peri…   5901. Time       s     Concentra… µg/l 
#>  7            0     360 Organism|Peri…   7077. Time       s     Concentra… µg/l 
#>  8            0     420 Organism|Peri…   8194. Time       s     Concentra… µg/l 
#>  9            0     480 Organism|Peri…   9249. Time       s     Concentra… µg/l 
#> 10            0     540 Organism|Peri…  10242. Time       s     Concentra… µg/l 
#> # ℹ 494 more rows
#> # ℹ 19 more variables: molWeight <dbl>, dataType <chr>, yErrorValues <dbl>,
#> #   yErrorType <chr>, yErrorUnit <chr>, lloq <dbl>, Source <chr>, File <chr>,
#> #   Sheet <chr>, Molecule <chr>, Species <chr>, Organ <chr>, Compartment <chr>,
#> #   `Study Id` <chr>, Gender <chr>, Dose <chr>, Route <chr>,
#> #   `Patient Id` <chr>, group <chr>
```
