Convert datasets in DataCombined to common units — convertUnits • ospsuite
…
# Add observed data set
myDataCombined$addDataSets(obsData$`Vergin 1995.Iv`, groups = "Aciclovir PVB")

convertUnits(
  myDataCombined,
  xUnit = ospUnits$Time$s,
  yUnit = ospUnits$`Concentration [mass]`$`µg/l`
)
#> # A tibble: 504 x 27
#>    name        group dataT~1 xValues xUnit xDime~2 yValues yUnit yDime~3 yErro~4
#>    <chr>       <chr> <chr>     <dbl> <chr> <chr>     <dbl> <chr> <chr>     <dbl>
#>  1 Organism|P~ Acic~ simula~       0 s     Time         0  µg/l  Concen~      NA
#>  2 Organism|P~ Acic~ simula~      60 s     Time       733. µg/l  Concen~      NA
#>  3 Organism|P~ Acic~ simula~     120 s     Time      2050. µg/l  Concen~      NA
#>  4 Organism|P~ Acic~ simula~     180 s     Time      3382. µg/l  Concen~      NA
#>  5 Organism|P~ Acic~ simula~     240 s     Time      4668. µg/l  Concen~      NA
#>  6 Organism|P~ Acic~ simula~     300 s     Time      5901. µg/l  Concen~      NA
#>  7 Organism|P~ Acic~ simula~     360 s     Time      7077. µg/l  Concen~      NA
#>  8 Organism|P~ Acic~ simula~     420 s     Time      8194. µg/l  Concen~      NA
#>  9 Organism|P~ Acic~ simula~     480 s     Time      9249. µg/l  Concen~      NA
#> 10 Organism|P~ Acic~ simula~     540 s     Time     10242. µg/l  Concen~      NA
#> # ... with 494 more rows, 17 more variables: yErrorType <chr>,
#> #   yErrorUnit <chr>, IndividualId <int>, molWeight <dbl>, lloq <dbl>,
#> #   Source <chr>, File <chr>, Sheet <chr>, Molecule <chr>, Species <chr>,
#> #   Organ <chr>, Compartment <chr>, `Study Id` <chr>, Gender <chr>, Dose <chr>,
#> #   Route <chr>, `Patient Id` <chr>, and abbreviated variable names
#> #   1: dataType, 2: xDimension, 3: yDimension, 4: yErrorValues
…
