Converts a SimulationResults objects to a data.frame — simulationResultsToDataFrame • ospsuite
…
    Examples

library(ospsuite)

simPath <- system.file("extdata", "simple.pkml", package = "ospsuite")
sim <- loadSimulation(simPath)

# Running an individual simulation
# results is an instance of `SimulationResults`
results <- runSimulations(sim)

# convert to a dataframe
simulationResultsToDataFrame(results)
#> # A tibble: 84 x 9
#>    paths            IndividualId  Time simulationValues unit  dimension TimeUnit
#>    <chr>                   <int> <dbl>            <dbl> <chr> <chr>     <chr>   
#>  1 Organism|Liver|A            0     0            30    µmol  Amount    min     
#>  2 Organism|Liver|A            0    15            25.8  µmol  Amount    min     
#>  3 Organism|Liver|A            0    30            22.2  µmol  Amount    min     
#>  4 Organism|Liver|A            0    45            19.1  µmol  Amount    min     
#>  5 Organism|Liver|A            0    60            16.5  µmol  Amount    min     
#>  6 Organism|Liver|A            0    75            14.2  µmol  Amount    min     
#>  7 Organism|Liver|A            0    90            12.2  µmol  Amount    min     
#>  8 Organism|Liver|A            0   105            10.5  µmol  Amount    min     
#>  9 Organism|Liver|A            0   120             9.04 µmol  Amount    min     
#> 10 Organism|Liver|A            0   135             7.79 µmol  Amount    min     
#> # ... with 74 more rows, and 2 more variables: TimeDimension <chr>,
#> #   molWeight <dbl>
…
