Object combining simulated and observed data — DataCombined • ospsuite
…
# Looking at the applied transformations
myDataCombined$dataTransformations
#> # A tibble: 2 x 5
#>   name                                           xOffs~1 yOffs~2 xScal~3 yScal~4
#>   <chr>                                            <dbl>   <dbl>   <dbl>   <dbl>
#> 1 Organism|PeripheralVenousBlood|Aciclovir|Plas~       0       0       1       1
#> 2 Vergin 1995.Iv                                       0       0       1       1
#> # ... with abbreviated variable names 1: xOffsets, 2: yOffsets,
#> #   3: xScaleFactors, 4: yScaleFactors

# Accessing the combined data frame
myDataCombined$toDataFrame()
#> # A tibble: 504 x 27
#>    name        group dataT~1 xValues xUnit xDime~2 yValues yUnit yDime~3 yErro~4
#>    <chr>       <chr> <chr>     <dbl> <chr> <chr>     <dbl> <chr> <chr>     <dbl>
#>  1 Organism|P~ Acic~ simula~       0 min   Time       0    µmol~ Concen~      NA
#>  2 Organism|P~ Acic~ simula~       1 min   Time       3.25 µmol~ Concen~      NA
#>  3 Organism|P~ Acic~ simula~       2 min   Time       9.10 µmol~ Concen~      NA
#>  4 Organism|P~ Acic~ simula~       3 min   Time      15.0  µmol~ Concen~      NA
#>  5 Organism|P~ Acic~ simula~       4 min   Time      20.7  µmol~ Concen~      NA
#>  6 Organism|P~ Acic~ simula~       5 min   Time      26.2  µmol~ Concen~      NA
#>  7 Organism|P~ Acic~ simula~       6 min   Time      31.4  µmol~ Concen~      NA
#>  8 Organism|P~ Acic~ simula~       7 min   Time      36.4  µmol~ Concen~      NA
#>  9 Organism|P~ Acic~ simula~       8 min   Time      41.1  µmol~ Concen~      NA
#> 10 Organism|P~ Acic~ simula~       9 min   Time      45.5  µmol~ Concen~      NA
#> # ... with 494 more rows, 17 more variables: yErrorType <chr>,
#> #   yErrorUnit <chr>, IndividualId <int>, molWeight <dbl>, lloq <dbl>,
#> #   Source <chr>, File <chr>, Sheet <chr>, Molecule <chr>, Species <chr>,
#> #   Organ <chr>, Compartment <chr>, `Study Id` <chr>, Gender <chr>, Dose <chr>,
#> #   Route <chr>, `Patient Id` <chr>, and abbreviated variable names
#> #   1: dataType, 2: xDimension, 3: yDimension, 4: yErrorValues
#> # i Use `print(n = ...)` to see more rows, and `colnames()` to see all variable names
…
